1100
1110
1000
0100
0111
0111
1111
1010
1101
0111
0111
0010
1011
0011
0001
0100
1000
1111
1010
0101
0111
0010
0100
0101
1110
0011
0111
0111
1101
0111
0001
1000
0001
0111
0111
0111
1110
1000
1011
1101
0111
0100
0011
1010
1110
0011
0111
0100
1111
1011
